%!PS-Adobe-3.0 EPSF-3.0
%%Creator: MATLAB, The MathWorks, Inc. Version 8.3.0.532 (R2014a). Operating System: Darwin 13.3.0 Darwin Kernel Version 13.3.0: Tue Jun  3 21:27:35 PDT 2014; root:xnu-2422.110.17~1/RELEASE_X86_64 x86_64.
%%Title: /Users/ganvLOCAL/Documents/GiraffeTests/0821Test/ClsfyB/missrate.eps
%%CreationDate: 08/25/2014  23:04:00
%%DocumentNeededFonts: Helvetica
%%DocumentProcessColors: Cyan Magenta Yellow Black
%%LanguageLevel: 2
%%Pages: 1
%%BoundingBox:  -175   -71   788   863
%%EndComments

%%BeginProlog
% MathWorks dictionary
/MathWorks 160 dict begin
% definition operators
/bdef {bind def} bind def
/ldef {load def} bind def
/xdef {exch def} bdef
/xstore {exch store} bdef
% operator abbreviations
/c  /clip ldef
/cc /concat ldef
/cp /closepath ldef
/gr /grestore ldef
/gs /gsave ldef
/mt /moveto ldef
/np /newpath ldef
/cm /currentmatrix ldef
/sm /setmatrix ldef
/rm /rmoveto ldef
/rl /rlineto ldef
/s {show newpath} bdef
/sc {setcmykcolor} bdef
/sr /setrgbcolor ldef
/sg /setgray ldef
/w /setlinewidth ldef
/j /setlinejoin ldef
/cap /setlinecap ldef
/rc {rectclip} bdef
/rf {rectfill} bdef
% page state control
/pgsv () def
/bpage {/pgsv save def} bdef
/epage {pgsv restore} bdef
/bplot /gsave ldef
/eplot {stroke grestore} bdef
% orientation switch
/portraitMode 0 def /landscapeMode 1 def /rotateMode 2 def
% coordinate system mappings
/dpi2point 0 def
% font control
/FontSize 0 def
/FMS {/FontSize xstore findfont [FontSize 0 0 FontSize neg 0 0]
  makefont setfont} bdef
/reencode {exch dup where {pop load} {pop StandardEncoding} ifelse
  exch dup 3 1 roll findfont dup length dict begin
  { 1 index /FID ne {def}{pop pop} ifelse } forall
  /Encoding exch def currentdict end definefont pop} bdef
/isroman {findfont /CharStrings get /Agrave known} bdef
/FMSR {3 1 roll 1 index dup isroman {reencode} {pop pop} ifelse
  exch FMS} bdef
/csm {1 dpi2point div -1 dpi2point div scale neg translate
 dup landscapeMode eq {pop -90 rotate}
  {rotateMode eq {90 rotate} if} ifelse} bdef
% line types: solid, dotted, dashed, dotdash
/SO { [] 0 setdash } bdef
/DO { [.5 dpi2point mul 4 dpi2point mul] 0 setdash } bdef
/DA { [6 dpi2point mul] 0 setdash } bdef
/DD { [.5 dpi2point mul 4 dpi2point mul 6 dpi2point mul 4
  dpi2point mul] 0 setdash } bdef
% macros for lines and objects
/L {lineto stroke} bdef
/MP {3 1 roll moveto 1 sub {rlineto} repeat} bdef
/AP {{rlineto} repeat} bdef
/PDlw -1 def
/W {/PDlw currentlinewidth def setlinewidth} def
/PP {closepath eofill} bdef
/DP {closepath stroke} bdef
/MR {4 -2 roll moveto dup  0 exch rlineto exch 0 rlineto
  neg 0 exch rlineto closepath} bdef
/FR {MR stroke} bdef
/PR {MR fill} bdef
/L1i {{currentfile picstr readhexstring pop} image} bdef
/tMatrix matrix def
/MakeOval {newpath tMatrix currentmatrix pop translate scale
0 0 1 0 360 arc tMatrix setmatrix} bdef
/FO {MakeOval stroke} bdef
/PO {MakeOval fill} bdef
/PD {currentlinewidth 2 div 0 360 arc fill
   PDlw -1 eq not {PDlw w /PDlw -1 def} if} def
/FA {newpath tMatrix currentmatrix pop translate scale
  0 0 1 5 -2 roll arc tMatrix setmatrix stroke} bdef
/PA {newpath tMatrix currentmatrix pop	translate 0 0 moveto scale
  0 0 1 5 -2 roll arc closepath tMatrix setmatrix fill} bdef
/FAn {newpath tMatrix currentmatrix pop translate scale
  0 0 1 5 -2 roll arcn tMatrix setmatrix stroke} bdef
/PAn {newpath tMatrix currentmatrix pop translate 0 0 moveto scale
  0 0 1 5 -2 roll arcn closepath tMatrix setmatrix fill} bdef
/vradius 0 def /hradius 0 def /lry 0 def
/lrx 0 def /uly 0 def /ulx 0 def /rad 0 def
/MRR {/vradius xdef /hradius xdef /lry xdef /lrx xdef /uly xdef
  /ulx xdef newpath tMatrix currentmatrix pop ulx hradius add uly
  vradius add translate hradius vradius scale 0 0 1 180 270 arc 
  tMatrix setmatrix lrx hradius sub uly vradius add translate
  hradius vradius scale 0 0 1 270 360 arc tMatrix setmatrix
  lrx hradius sub lry vradius sub translate hradius vradius scale
  0 0 1 0 90 arc tMatrix setmatrix ulx hradius add lry vradius sub
  translate hradius vradius scale 0 0 1 90 180 arc tMatrix setmatrix
  closepath} bdef
/FRR {MRR stroke } bdef
/PRR {MRR fill } bdef
/MlrRR {/lry xdef /lrx xdef /uly xdef /ulx xdef /rad lry uly sub 2 div def
  newpath tMatrix currentmatrix pop ulx rad add uly rad add translate
  rad rad scale 0 0 1 90 270 arc tMatrix setmatrix lrx rad sub lry rad
  sub translate rad rad scale 0 0 1 270 90 arc tMatrix setmatrix
  closepath} bdef
/FlrRR {MlrRR stroke } bdef
/PlrRR {MlrRR fill } bdef
/MtbRR {/lry xdef /lrx xdef /uly xdef /ulx xdef /rad lrx ulx sub 2 div def
  newpath tMatrix currentmatrix pop ulx rad add uly rad add translate
  rad rad scale 0 0 1 180 360 arc tMatrix setmatrix lrx rad sub lry rad
  sub translate rad rad scale 0 0 1 0 180 arc tMatrix setmatrix
  closepath} bdef
/FtbRR {MtbRR stroke } bdef
/PtbRR {MtbRR fill } bdef
/stri 6 array def /dtri 6 array def
/smat 6 array def /dmat 6 array def
/tmat1 6 array def /tmat2 6 array def /dif 3 array def
/asub {/ind2 exch def /ind1 exch def dup dup
  ind1 get exch ind2 get sub exch } bdef
/tri_to_matrix {
  2 0 asub 3 1 asub 4 0 asub 5 1 asub
  dup 0 get exch 1 get 7 -1 roll astore } bdef
/compute_transform {
  dmat dtri tri_to_matrix tmat1 invertmatrix 
  smat stri tri_to_matrix tmat2 concatmatrix } bdef
/ds {stri astore pop} bdef
/dt {dtri astore pop} bdef
/db {2 copy /cols xdef /rows xdef mul dup 3 mul string
  currentfile 
  3 index 0 eq {/ASCIIHexDecode filter}
  {/ASCII85Decode filter 3 index 2 eq {/RunLengthDecode filter} if }
  ifelse exch readstring pop
  dup 0 3 index getinterval /rbmap xdef
  dup 2 index dup getinterval /gbmap xdef
  1 index dup 2 mul exch getinterval /bbmap xdef pop pop}bdef
/it {gs np dtri aload pop moveto lineto lineto cp c
  cols rows 8 compute_transform 
  rbmap gbmap bbmap true 3 colorimage gr}bdef
/il {newpath moveto lineto stroke}bdef
currentdict end def
%%EndProlog

%%BeginSetup
MathWorks begin

0 cap

end
%%EndSetup

%%Page: 1 1
%%BeginPageSetup
%%PageBoundingBox:  -175   -71   788   863
MathWorks begin
bpage
%%EndPageSetup

%%BeginObject: obj1
bplot

/dpi2point 12 def
portraitMode -2100 10356 csm

    0     0 11567 11208 rc
100 dict begin %Colortable dictionary
/c0 { 0.000000 0.000000 0.000000 sr} bdef
/c1 { 1.000000 1.000000 1.000000 sr} bdef
/c2 { 0.900000 0.000000 0.000000 sr} bdef
/c3 { 0.000000 0.820000 0.000000 sr} bdef
/c4 { 0.000000 0.000000 0.800000 sr} bdef
/c5 { 0.910000 0.820000 0.320000 sr} bdef
/c6 { 1.000000 0.260000 0.820000 sr} bdef
/c7 { 0.000000 0.820000 0.820000 sr} bdef
c0
1 j
1 sg
   0    0 11568 11209 rf
6 w
0 9134 8964 0 0 -9134 1504 9975 4 MP
PP
-8964 0 0 9134 8964 0 0 -9134 1504 9975 5 MP stroke
4 w
DO
SO
6 w
0 sg
1504 9975 mt 10468 9975 L
1504 9975 mt 1504  841 L
1504 9975 mt 1504 9883 L
%%IncludeResource: font Helvetica
/Helvetica /ISOLatin1Encoding 120 FMSR

1351 10120 mt 
(-1.5) s
2400 9975 mt 2400 9883 L
2297 10120 mt 
(-1) s
3296 9975 mt 3296 9883 L
3143 10120 mt 
(-0.5) s
4193 9975 mt 4193 9883 L
4160 10120 mt 
(0) s
5089 9975 mt 5089 9883 L
5006 10120 mt 
(0.5) s
5986 9975 mt 5986 9883 L
5953 10120 mt 
(1) s
6882 9975 mt 6882 9883 L
6799 10120 mt 
(1.5) s
7778 9975 mt 7778 9883 L
7745 10120 mt 
(2) s
8675 9975 mt 8675 9883 L
8592 10120 mt 
(2.5) s
9571 9975 mt 9571 9883 L
9538 10120 mt 
(3) s
10468 9975 mt 10468 9883 L
10385 10120 mt 
(3.5) s
1504 9975 mt 1595 9975 L
1403 10019 mt 
(0) s
1504 9061 mt 1595 9061 L
1303 9105 mt 
(0.1) s
1504 8148 mt 1595 8148 L
1303 8192 mt 
(0.2) s
1504 7234 mt 1595 7234 L
1303 7278 mt 
(0.3) s
1504 6321 mt 1595 6321 L
1303 6365 mt 
(0.4) s
1504 5408 mt 1595 5408 L
1303 5452 mt 
(0.5) s
1504 4494 mt 1595 4494 L
1303 4538 mt 
(0.6) s
1504 3581 mt 1595 3581 L
1303 3625 mt 
(0.7) s
1504 2667 mt 1595 2667 L
1303 2711 mt 
(0.8) s
1504 1754 mt 1595 1754 L
1303 1798 mt 
(0.9) s
1504  841 mt 1595  841 L
1403  885 mt 
(1) s
5095 10263 mt 
(False Positives Per Image \(log10\)) s
1221 5676 mt  -90 rotate
(Miss Rate) s
90 rotate
4939  746 mt 
(Miss Rate vs False Positives Per Image) s
gs 1504 841 8965 9135 rc
24 w
/c8 { 0.000000 0.000000 1.000000 sr} bdef
c8
-2441 -3813 -1071 -1986 -605 -556 -530 -397 -858 -238 7024 8942 6 MP stroke
/c9 { 1.000000 0.000000 0.000000 sr} bdef
c9
-526 -1906 -291 -794 -290 -636 -279 -1191 -796 -2065 6821 8783 6 MP stroke
/c10 { 0.000000 1.000000 0.000000 sr} bdef
c10
-2077 -2144 -523 -2383 -497 -1827 -717 -1509 -577 -953 7163 9657 6 MP stroke
/c11 { 0.000000 0.000000 0.172414 sr} bdef
c11
-922 -1668 -594 -635 -436 -1112 -930 -636 6509 9657 5 MP stroke
/c12 { 1.000000 0.103448 0.724138 sr} bdef
c12
-987 -1588 -823 -1112 -391 -874 -865 -476 6296 9577 5 MP stroke
/c13 { 1.000000 0.827586 0.000000 sr} bdef
c13
-1100 -1827 -253 -1668 -231 -2145 -536 -873 -646 -159 6879 9736 6 MP stroke
/c14 { 0.000000 0.344828 0.000000 sr} bdef
c14
-632 -2224 -431 -1350 -207 -1509 -360 -1271 -610 -79 6549 9736 6 MP stroke
/c15 { 0.517241 0.517241 1.000000 sr} bdef
c15
-1530 -1350 -832 -477 -719 -238 -815 0 8063 8068 5 MP stroke
/c16 { 0.620690 0.310345 0.275862 sr} bdef
c16
-2371 -2303 -1194 -2701 -696 -1429 -690 -636 -928 -794 8253 9895 6 MP stroke
/c17 { 0.000000 1.000000 0.758621 sr} bdef
c17
-2474 -2859 -922 -2224 -583 -1192 -688 -873 -953 -318 8534 9895 6 MP stroke
/c18 { 0.000000 0.517241 0.586207 sr} bdef
c18
-2769 -3892 -1392 -1747 -959 -1033 -920 -873 -1222 -159 9636 9895 6 MP stroke
/c19 { 0.000000 0.000000 0.482759 sr} bdef
c19
-3046 -2145 -1125 -2065 -620 -1271 -617 -159 -831 -79 7758 8227 6 MP stroke
/c20 { 0.586207 0.827586 0.310345 sr} bdef
c20
-2566 -2145 -806 -3574 -266 -1906 -730 -477 -1280 -159 7167 9816 6 MP stroke
/c21 { 0.965517 0.620690 0.862069 sr} bdef
c21
-1014 -1668 -887 -5163 -1228 -2065 -2172 0 9631 9895 5 MP stroke
/c22 { 0.827586 0.068966 1.000000 sr} bdef
c22
6361 9577 PD
/c23 { 0.482759 0.103448 0.413793 sr} bdef
c23
-785 -4289 -491 -1509 -206 -874 -691 -159 -788 0 7046 9816 6 MP stroke
/c24 { 0.965517 0.068966 0.379310 sr} bdef
c24
-1619 -4447 -1395 -3813 -595 -318 -573 0 -1363 0 7064 9816 6 MP stroke
gr

24 w
c24
0 sg
1487 10018 mt 
( ) s
10452  883 mt 
( ) s
6 w
1 sg
0 3442 2572 0 0 -3442 7837 4343 4 MP
PP
-2572 0 0 3442 2572 0 0 -3442 7837 4343 5 MP stroke
4 w
DO
SO
6 w
0 sg
7837 4343 mt 10409 4343 L
7837  901 mt 10409  901 L
7837 4343 mt 7837  901 L
10409 4343 mt 10409  901 L
7837 4343 mt 10409 4343 L
7837 4343 mt 7837  901 L
7837 4343 mt 10409 4343 L
7837  901 mt 10409  901 L
7837 4343 mt 7837  901 L
10409 4343 mt 10409  901 L
8243 1035 mt 
(Clsfy) s
%%IncludeResource: font Helvetica
/Helvetica /ISOLatin1Encoding 96 FMSR

8509 1095 mt 
(a) s
%%IncludeResource: font Helvetica
/Helvetica /ISOLatin1Encoding 120 FMSR

8562 1035 mt 
(llscale) s
%%IncludeResource: font Helvetica
/Helvetica /ISOLatin1Encoding 96 FMSR

8895 1095 mt 
(B) s
gs 7837 901 2573 3443 rc
24 w
c8
312 0 7899 1020 2 MP stroke
gr

24 w
c8
0 sg
%%IncludeResource: font Helvetica
/Helvetica /ISOLatin1Encoding 120 FMSR

8243 1235 mt 
(Clsfy) s
%%IncludeResource: font Helvetica
/Helvetica /ISOLatin1Encoding 96 FMSR

8509 1295 mt 
(h) s
%%IncludeResource: font Helvetica
/Helvetica /ISOLatin1Encoding 120 FMSR

8562 1235 mt 
(ogRaw) s
gs 7837 901 2573 3443 rc
c9
312 0 7899 1220 2 MP stroke
gr

c9
0 sg
8243 1436 mt 
(Clsfy) s
%%IncludeResource: font Helvetica
/Helvetica /ISOLatin1Encoding 96 FMSR

8509 1496 mt 
(m) s
%%IncludeResource: font Helvetica
/Helvetica /ISOLatin1Encoding 120 FMSR

8588 1436 mt 
(ag) s
%%IncludeResource: font Helvetica
/Helvetica /ISOLatin1Encoding 96 FMSR

8721 1496 mt 
(B) s
gs 7837 901 2573 3443 rc
c10
312 0 7899 1420 2 MP stroke
gr

c10
0 sg
%%IncludeResource: font Helvetica
/Helvetica /ISOLatin1Encoding 120 FMSR

8243 1636 mt 
(Clsfy) s
%%IncludeResource: font Helvetica
/Helvetica /ISOLatin1Encoding 96 FMSR

8509 1696 mt 
(m) s
%%IncludeResource: font Helvetica
/Helvetica /ISOLatin1Encoding 120 FMSR

8588 1636 mt 
(aghog) s
gs 7837 901 2573 3443 rc
c11
312 0 7899 1620 2 MP stroke
gr

c11
0 sg
8243 1836 mt 
(Clsfy) s
%%IncludeResource: font Helvetica
/Helvetica /ISOLatin1Encoding 96 FMSR

8509 1896 mt 
(m) s
%%IncludeResource: font Helvetica
/Helvetica /ISOLatin1Encoding 120 FMSR

8588 1836 mt 
(aghogint) s
%%IncludeResource: font Helvetica
/Helvetica /ISOLatin1Encoding 96 FMSR

9048 1896 mt 
(B) s
gs 7837 901 2573 3443 rc
c12
312 0 7899 1821 2 MP stroke
gr

c12
0 sg
%%IncludeResource: font Helvetica
/Helvetica /ISOLatin1Encoding 120 FMSR

8243 2037 mt 
(Clsfy) s
%%IncludeResource: font Helvetica
/Helvetica /ISOLatin1Encoding 96 FMSR

8509 2097 mt 
(m) s
%%IncludeResource: font Helvetica
/Helvetica /ISOLatin1Encoding 120 FMSR

8588 2037 mt 
(aghogintthresh) s
%%IncludeResource: font Helvetica
/Helvetica /ISOLatin1Encoding 96 FMSR

9381 2097 mt 
(B) s
gs 7837 901 2573 3443 rc
c13
312 0 7899 2021 2 MP stroke
gr

c13
0 sg
%%IncludeResource: font Helvetica
/Helvetica /ISOLatin1Encoding 120 FMSR

8243 2237 mt 
(Clsfy) s
%%IncludeResource: font Helvetica
/Helvetica /ISOLatin1Encoding 96 FMSR

8509 2297 mt 
(m) s
%%IncludeResource: font Helvetica
/Helvetica /ISOLatin1Encoding 120 FMSR

8588 2237 mt 
(aghograwint) s
%%IncludeResource: font Helvetica
/Helvetica /ISOLatin1Encoding 96 FMSR

9236 2297 mt 
(B) s
gs 7837 901 2573 3443 rc
c14
312 0 7899 2221 2 MP stroke
gr

c14
0 sg
%%IncludeResource: font Helvetica
/Helvetica /ISOLatin1Encoding 120 FMSR

8243 2437 mt 
(Clsfy) s
%%IncludeResource: font Helvetica
/Helvetica /ISOLatin1Encoding 96 FMSR

8509 2497 mt 
(n) s
%%IncludeResource: font Helvetica
/Helvetica /ISOLatin1Encoding 120 FMSR

8562 2437 mt 
(ms) s
%%IncludeResource: font Helvetica
/Helvetica /ISOLatin1Encoding 96 FMSR

8721 2497 mt 
(a) s
%%IncludeResource: font Helvetica
/Helvetica /ISOLatin1Encoding 120 FMSR

8774 2437 mt 
(dded) s
gs 7837 901 2573 3443 rc
c15
312 0 7899 2421 2 MP stroke
gr

c15
0 sg
8243 2638 mt 
(Clsfy) s
%%IncludeResource: font Helvetica
/Helvetica /ISOLatin1Encoding 96 FMSR

8509 2698 mt 
(n) s
%%IncludeResource: font Helvetica
/Helvetica /ISOLatin1Encoding 120 FMSR

8562 2638 mt 
(ms) s
%%IncludeResource: font Helvetica
/Helvetica /ISOLatin1Encoding 96 FMSR

8721 2698 mt 
(a) s
%%IncludeResource: font Helvetica
/Helvetica /ISOLatin1Encoding 120 FMSR

8774 2638 mt 
(dded1scaleX) s
gs 7837 901 2573 3443 rc
c16
312 0 7899 2622 2 MP stroke
gr

c16
0 sg
8243 2838 mt 
(Clsfy) s
%%IncludeResource: font Helvetica
/Helvetica /ISOLatin1Encoding 96 FMSR

8509 2898 mt 
(n) s
%%IncludeResource: font Helvetica
/Helvetica /ISOLatin1Encoding 120 FMSR

8562 2838 mt 
(ms) s
%%IncludeResource: font Helvetica
/Helvetica /ISOLatin1Encoding 96 FMSR

8721 2898 mt 
(a) s
%%IncludeResource: font Helvetica
/Helvetica /ISOLatin1Encoding 120 FMSR

8774 2838 mt 
(dded) s
%%IncludeResource: font Helvetica
/Helvetica /ISOLatin1Encoding 96 FMSR

9040 2898 mt 
(1) s
%%IncludeResource: font Helvetica
/Helvetica /ISOLatin1Encoding 120 FMSR

9093 2838 mt 
(scale) s
gs 7837 901 2573 3443 rc
c17
312 0 7899 2822 2 MP stroke
gr

c17
0 sg
8243 3038 mt 
(Clsfy) s
%%IncludeResource: font Helvetica
/Helvetica /ISOLatin1Encoding 96 FMSR

8509 3098 mt 
(n) s
%%IncludeResource: font Helvetica
/Helvetica /ISOLatin1Encoding 120 FMSR

8562 3038 mt 
(ms) s
%%IncludeResource: font Helvetica
/Helvetica /ISOLatin1Encoding 96 FMSR

8721 3098 mt 
(n) s
%%IncludeResource: font Helvetica
/Helvetica /ISOLatin1Encoding 120 FMSR

8774 3038 mt 
(o) s
gs 7837 901 2573 3443 rc
c18
312 0 7899 3022 2 MP stroke
gr

c18
0 sg
8243 3238 mt 
(Clsy) s
%%IncludeResource: font Helvetica
/Helvetica /ISOLatin1Encoding 96 FMSR

8476 3298 mt 
(i) s
%%IncludeResource: font Helvetica
/Helvetica /ISOLatin1Encoding 120 FMSR

8497 3238 mt 
(ntensity) s
gs 7837 901 2573 3443 rc
c19
312 0 7899 3222 2 MP stroke
gr

c19
0 sg
8243 3439 mt 
(Clsy) s
%%IncludeResource: font Helvetica
/Helvetica /ISOLatin1Encoding 96 FMSR

8476 3499 mt 
(m) s
%%IncludeResource: font Helvetica
/Helvetica /ISOLatin1Encoding 120 FMSR

8555 3439 mt 
(agbg) s
%%IncludeResource: font Helvetica
/Helvetica /ISOLatin1Encoding 96 FMSR

8821 3499 mt 
(B) s
gs 7837 901 2573 3443 rc
c20
312 0 7899 3422 2 MP stroke
gr

c20
0 sg
%%IncludeResource: font Helvetica
/Helvetica /ISOLatin1Encoding 120 FMSR

8243 3639 mt 
(clsfy-hog-rf-VideoA-VideoB) s
%%IncludeResource: font Helvetica
/Helvetica /ISOLatin1Encoding 96 FMSR

9810 3699 mt 
(0) s
%%IncludeResource: font Helvetica
/Helvetica /ISOLatin1Encoding 120 FMSR

9863 3639 mt 
(1fps) s
gs 7837 901 2573 3443 rc
c21
312 0 7899 3623 2 MP stroke
gr

c21
0 sg
8243 3839 mt 
(clsfy-hog-rferns-VideoA-VideoB) s
%%IncludeResource: font Helvetica
/Helvetica /ISOLatin1Encoding 96 FMSR

10043 3899 mt 
(0) s
%%IncludeResource: font Helvetica
/Helvetica /ISOLatin1Encoding 120 FMSR

10096 3839 mt 
(1fps) s
gs 7837 901 2573 3443 rc
c22
312 0 7899 3823 2 MP stroke
gr

c22
0 sg
8243 4040 mt 
(clsfy-maghogintbg) s
%%IncludeResource: font Helvetica
/Helvetica /ISOLatin1Encoding 96 FMSR

9246 4100 mt 
(B) s
gs 7837 901 2573 3443 rc
c23
312 0 7899 4023 2 MP stroke
gr

c23
0 sg
%%IncludeResource: font Helvetica
/Helvetica /ISOLatin1Encoding 120 FMSR

8243 4240 mt 
(clsfy) s
%%IncludeResource: font Helvetica
/Helvetica /ISOLatin1Encoding 96 FMSR

8483 4300 mt 
(m) s
%%IncludeResource: font Helvetica
/Helvetica /ISOLatin1Encoding 120 FMSR

8562 4240 mt 
(aghotbg) s
%%IncludeResource: font Helvetica
/Helvetica /ISOLatin1Encoding 96 FMSR

8995 4300 mt 
(B) s
gs 7837 901 2573 3443 rc
c24
312 0 7899 4223 2 MP stroke
6 w
gr

6 w
c24

end %%Color Dict

eplot
%%EndObject

epage
end

showpage

%%Trailer
%%EOF
